Precedence Matrix — precedence_matrix_absolute • heuristicsmineR
…
      eventlog
      The event log object to be used.

      lead
      The distance between activities following/preceding each other.

    Examples

library(eventdataR)
data(traffic_fines)
m <- precedence_matrix_absolute(traffic_fines)
print(m)

#> # A tibble: 47 x 3
#>    antecedent                            consequent                            n
#>    <fct>                                 <fct>                             <int>
#>  1 Payment                               Insert Fine Notification              1
#>  2 Receive Result Appeal from Prefecture Send for Credit Collection            1
#>  3 Notify Result Appeal to Offender      Receive Result Appeal from Prefe~     1
#>  4 Receive Result Appeal from Prefecture Payment                               1
#>  5 Payment                               Receive Result Appeal from Prefe~     1
#>  6 Add penalty                           Notify Result Appeal to Offender      3
#>  7 Receive Result Appeal from Prefecture Add penalty                           2
#>  8 Notify Result Appeal to Offender      Add penalty                           3
#>  9 Insert Date Appeal to Prefecture      Add penalty                         170
#> 10 Create Fine                           Payment                            3443
#> # ... with 37 more rows
…
