Precedence Matrix — precedence_matrix • heuristicsmineR
…
      eventlog
      The event log object to be used

      type
      The type of precedence matrix, which can be absolulte, relative, relative-antecedent or relative-consequent. Absolute will return
a matrix with absolute frequencies, relative will return global relative frequencies for all antecedent-consequent pairs.
Relative-antecedent will return relative frequencies within each antecendent, i.e. showing the relative proportion of consequents within each antecedent.
Relative-consequent will do the reverse.

    Examples

m <- precedence_matrix(hospital_multi_perspective, type = "absolute")
print(m)

#> # A tibble: 29 x 3
#>    antecedent         consequent             n
#>    <fct>              <fct>              <int>
#>  1 Triage             Check                  1
#>  2 Final Visit        Triage                 1
#>  3 Start              Register               1
#>  4 Organize Ambulance Check                 38
#>  5 Check              Organize Ambulance    81
#>  6 Organize Ambulance End                  381
#>  7 Prepare            Organize Ambulance   338
#>  8 Visit              X-Ray                452
#>  9 Check              End                 2284
#> 10 Prepare            Check               2327
#> # ... with 19 more rows
…
